{
	"info": {
		"_postman_id": "c1043317-69a9-4382-9bb4-1c8eba5c956a",
		"name": "Bar night Admin Auth management",
		"schema": "https://schema.getpostman.com/json/collection/v2.1.0/collection.json"
	},
	"item": [
		{
			"name": "Admin Login",
			"request": {
				"method": "POST",
				"header": [],
				"body": {
					"mode": "formdata",
					"formdata": [
						{
							"key": "userName",
							"value": "admin",
							"type": "text"
						},
						{
							"key": "password",
							"value": "787683",
							"type": "text"
						}
					]
				},
				"url": {
					"raw": "http://localhost/bar-nights-api/api/adminLogin",
					"protocol": "http",
					"host": [
						"localhost"
					],
					"path": [
						"bar-nights-api",
						"api",
						"adminLogin"
					]
				}
			},
			"response": []
		},
		{
			"name": "Admin Forgot password",
			"request": {
				"method": "POST",
				"header": [],
				"body": {
					"mode": "formdata",
					"formdata": [
						{
							"key": "email",
							"value": "ravindra@coretechies.com",
							"type": "text"
						}
					]
				},
				"url": {
					"raw": "http://localhost/bar-nights-api/api/adminForgotPassword",
					"protocol": "http",
					"host": [
						"localhost"
					],
					"path": [
						"bar-nights-api",
						"api",
						"adminForgotPassword"
					]
				}
			},
			"response": []
		},
		{
			"name": "Admin Change Password",
			"request": {
				"method": "POST",
				"header": [],
				"body": {
					"mode": "formdata",
					"formdata": [
						{
							"key": "userId",
							"value": "47",
							"type": "text"
						},
						{
							"key": "oldPassword",
							"value": "787683",
							"type": "text"
						},
						{
							"key": "newPassword",
							"value": "12345678",
							"type": "text"
						},
						{
							"key": "confirmPassword",
							"value": "12345678",
							"type": "text"
						}
					]
				},
				"url": {
					"raw": "http://localhost/bar-nights-api/api/adminChangePassword",
					"protocol": "http",
					"host": [
						"localhost"
					],
					"path": [
						"bar-nights-api",
						"api",
						"adminChangePassword"
					]
				}
			},
			"response": []
		}
	]
}