{

    "require": {
        "intervention/image": "^2.5"
    },
    "name": "laravel/laravel",
    "type": "project",
    "description": "The Laravel Framework.",
    "keywords": [
        "framework",
        "laravel"
    ],
    "license": "MIT",
    "require": {
        "php": "^7.1.3",
        "cyber-duck/laravel-excel": "^1.2",
        "fideloper/proxy": "^4.0",
        "intervention/image": "^2.5",
        "laravel/framework": "5.7.*",
        "illuminate/support": "5.4.*",
        "laravel/passport": "^7.2",
        "laravel/tinker": "^1.0",
        "league/flysystem-aws-s3-v3": "^1.0",
        "maatwebsite/excel": "^3.1",
        "qcod/laravel-imageup": "^1.0",
        "razorpay/razorpay": "^2.5",
        "spatie/laravel-backup": "^5.0.0",
        "packageB/packageB": "dev-master"
    },
    "require-dev": {
        "beyondcode/laravel-dump-server": "^1.0",
        "filp/whoops": "^2.0",
        "fzaninotto/faker": "^1.4",
        "mockery/mockery": "^1.0",
        "nunomaduro/collision": "^2.0",
        "phpunit/phpunit": "^7.0"
    },
    "config": {
        "optimize-autoloader": true,
        "preferred-install": "dist",
        "sort-packages": true
    },
    "extra": {
        "laravel": {
            "dont-discover": []
        }
    },
    "autoload": {
        "files": [
            "app/Helper/CommonFunction.php"
        ],
        "psr-4": {
            "App\\": "app/"
        },
        "classmap": [
            "database/seeds",
            "database/factories"
        ]
    },
    "autoload-dev": {
        "psr-4": {
            "Tests\\": "tests/"
        }
    },
    "minimum-stability": "dev",
    "prefer-stable": true,
    "scripts": {
        "post-autoload-dump": [
            "Illuminate\\Foundation\\ComposerScripts::postAutoloadDump",
            "@php artisan package:discover --ansi"
        ],
        "post-root-package-install": [
            "@php -r \"file_exists('.env') || copy('.env.example', '.env');\""
        ],
        "post-create-project-cmd": [
            "@php artisan key:generate --ansi"
        ]
    }
}
