{
	"info": {
		"_postman_id": "bec11253-2cba-4d29-8397-b748d5a57937",
		"name": "BN PreOrderApis - Live",
		"schema": "https://schema.getpostman.com/json/collection/v2.1.0/collection.json"
	},
	"item": [
		{
			"name": "addToCart",
			"request": {
				"method": "POST",
				"header": [],
				"body": {
					"mode": "formdata",
					"formdata": [
						{
							"key": "userId",
							"value": "61",
							"type": "text"
						},
						{
							"key": "cartItems",
							"value": "[{\"itemId\":\"1\",\"quantity\":\"2\"},{\"itemId\":\"3\",\"quantity\":\"1\"},{\"itemId\":\"4\",\"quantity\":\"3\"}]",
							"type": "text"
						},
						{
							"key": "orderType",
							"value": "order",
							"description": "preorder,order",
							"type": "text"
						},
						{
							"key": "barId",
							"value": "1",
							"type": "text"
						}
					]
				},
				"url": {
					"raw": "http://104.197.28.169/bar-nights-api/api/addToCart",
					"protocol": "http",
					"host": [
						"104",
						"197",
						"28",
						"169"
					],
					"path": [
						"bar-nights-api",
						"api",
						"addToCart"
					]
				}
			},
			"response": []
		},
		{
			"name": "clearCart",
			"request": {
				"method": "POST",
				"header": [],
				"body": {
					"mode": "formdata",
					"formdata": [
						{
							"key": "userId",
							"value": "1",
							"type": "text"
						},
						{
							"key": "orderType",
							"value": "order",
							"description": "preorder,order",
							"type": "text"
						},
						{
							"key": "barId",
							"value": "",
							"description": "it is needed if you add data of another bar in cart ",
							"type": "text",
							"disabled": true
						},
						{
							"key": "quantity",
							"value": "",
							"description": "it is needed if you add data of another bar in cart ",
							"type": "text",
							"disabled": true
						},
						{
							"key": "itemId",
							"value": "",
							"description": "it is needed if you add data of another bar in cart ",
							"type": "text",
							"disabled": true
						}
					]
				},
				"url": {
					"raw": "http://104.197.28.169/bar-nights-api/api/clearCart",
					"protocol": "http",
					"host": [
						"104",
						"197",
						"28",
						"169"
					],
					"path": [
						"bar-nights-api",
						"api",
						"clearCart"
					]
				}
			},
			"response": []
		},
		{
			"name": "getCartItems",
			"request": {
				"method": "POST",
				"header": [],
				"body": {
					"mode": "formdata",
					"formdata": [
						{
							"key": "userId",
							"value": "60",
							"type": "text"
						},
						{
							"key": "orderType",
							"value": "preorder",
							"description": "preorder,order",
							"type": "text"
						},
						{
							"key": "barId",
							"value": "1",
							"type": "text"
						}
					]
				},
				"url": {
					"raw": "http://104.197.28.169/bar-nights-api/api/getCartItems",
					"protocol": "http",
					"host": [
						"104",
						"197",
						"28",
						"169"
					],
					"path": [
						"bar-nights-api",
						"api",
						"getCartItems"
					]
				}
			},
			"response": []
		},
		{
			"name": "removeCartItem",
			"request": {
				"method": "POST",
				"header": [],
				"body": {
					"mode": "formdata",
					"formdata": [
						{
							"key": "id",
							"value": "16",
							"type": "text"
						}
					]
				},
				"url": {
					"raw": "http://104.197.28.169/bar-nights-api/api/removeCartItem",
					"protocol": "http",
					"host": [
						"104",
						"197",
						"28",
						"169"
					],
					"path": [
						"bar-nights-api",
						"api",
						"removeCartItem"
					]
				}
			},
			"response": []
		},
		{
			"name": "updateCartItem",
			"request": {
				"method": "POST",
				"header": [],
				"body": {
					"mode": "formdata",
					"formdata": [
						{
							"key": "id",
							"value": "11",
							"type": "text"
						},
						{
							"key": "quantity",
							"value": "10",
							"type": "text"
						}
					]
				},
				"url": {
					"raw": "http://104.197.28.169/bar-nights-api/api/updateCartItem",
					"protocol": "http",
					"host": [
						"104",
						"197",
						"28",
						"169"
					],
					"path": [
						"bar-nights-api",
						"api",
						"updateCartItem"
					]
				}
			},
			"response": []
		},
		{
			"name": "insertPreOrder",
			"request": {
				"method": "POST",
				"header": [],
				"body": {
					"mode": "formdata",
					"formdata": [
						{
							"key": "userId",
							"value": "1",
							"description": "H:m:s",
							"type": "text"
						},
						{
							"key": "barId",
							"value": "1",
							"type": "text"
						},
						{
							"key": "friendId",
							"value": "22",
							"type": "text"
						}
					]
				},
				"url": {
					"raw": "http://104.197.28.169/bar-nights-api/api/insertPreOrder",
					"protocol": "http",
					"host": [
						"104",
						"197",
						"28",
						"169"
					],
					"path": [
						"bar-nights-api",
						"api",
						"insertPreOrder"
					]
				}
			},
			"response": []
		},
		{
			"name": "getPreOrders",
			"request": {
				"method": "POST",
				"header": [],
				"body": {
					"mode": "formdata",
					"formdata": [
						{
							"key": "userId",
							"value": "1",
							"description": "H:m:s",
							"type": "text"
						}
					]
				},
				"url": {
					"raw": "http://104.197.28.169/bar-nights-api/api/getPreOrders",
					"protocol": "http",
					"host": [
						"104",
						"197",
						"28",
						"169"
					],
					"path": [
						"bar-nights-api",
						"api",
						"getPreOrders"
					]
				}
			},
			"response": []
		},
		{
			"name": "preOrderDetails",
			"request": {
				"method": "POST",
				"header": [],
				"body": {
					"mode": "formdata",
					"formdata": [
						{
							"key": "id",
							"value": "15",
							"description": "H:m:s",
							"type": "text"
						}
					]
				},
				"url": {
					"raw": "http://104.197.28.169/bar-nights-api/api/preOrderDetails",
					"protocol": "http",
					"host": [
						"104",
						"197",
						"28",
						"169"
					],
					"path": [
						"bar-nights-api",
						"api",
						"preOrderDetails"
					]
				}
			},
			"response": []
		},
		{
			"name": "getOrders",
			"request": {
				"method": "POST",
				"header": [],
				"body": {
					"mode": "formdata",
					"formdata": [
						{
							"key": "userId",
							"value": "61",
							"description": "H:m:s",
							"type": "text"
						},
						{
							"key": "limit",
							"value": "3",
							"type": "text",
							"disabled": true
						},
						{
							"key": "startFrom",
							"value": "8",
							"type": "text",
							"disabled": true
						}
					]
				},
				"url": {
					"raw": "http://104.197.28.169/bar-nights-api/api/getOrders",
					"protocol": "http",
					"host": [
						"104",
						"197",
						"28",
						"169"
					],
					"path": [
						"bar-nights-api",
						"api",
						"getOrders"
					]
				}
			},
			"response": []
		},
		{
			"name": "insertOrder",
			"request": {
				"method": "POST",
				"header": [],
				"body": {
					"mode": "formdata",
					"formdata": [
						{
							"key": "userId",
							"value": "61",
							"description": "H:m:s",
							"type": "text"
						},
						{
							"key": "visitId",
							"value": "4",
							"type": "text"
						},
						{
							"key": "friendId",
							"value": "",
							"type": "text",
							"disabled": true
						}
					]
				},
				"url": {
					"raw": "http://104.197.28.169/bar-nights-api/api/insertOrder",
					"protocol": "http",
					"host": [
						"104",
						"197",
						"28",
						"169"
					],
					"path": [
						"bar-nights-api",
						"api",
						"insertOrder"
					]
				}
			},
			"response": []
		},
		{
			"name": "getOrderDetails",
			"request": {
				"method": "POST",
				"header": [],
				"body": {
					"mode": "formdata",
					"formdata": [
						{
							"key": "visitId",
							"value": "10",
							"type": "text"
						},
						{
							"key": "id",
							"value": "12",
							"type": "text",
							"disabled": true
						}
					]
				},
				"url": {
					"raw": "http://104.197.28.169/bar-nights-api/api/getOrderDetails",
					"protocol": "http",
					"host": [
						"104",
						"197",
						"28",
						"169"
					],
					"path": [
						"bar-nights-api",
						"api",
						"getOrderDetails"
					]
				}
			},
			"response": []
		},
		{
			"name": "getRecievedGifts",
			"request": {
				"method": "POST",
				"header": [],
				"body": {
					"mode": "formdata",
					"formdata": [
						{
							"key": "userId",
							"value": "22",
							"type": "text"
						},
						{
							"key": "startFrom",
							"value": "",
							"type": "text",
							"disabled": true
						},
						{
							"key": "limit",
							"value": "",
							"type": "text",
							"disabled": true
						}
					]
				},
				"url": {
					"raw": "http://104.197.28.169/bar-nights-api/api/getRecievedGifts",
					"protocol": "http",
					"host": [
						"104",
						"197",
						"28",
						"169"
					],
					"path": [
						"bar-nights-api",
						"api",
						"getRecievedGifts"
					]
				}
			},
			"response": []
		},
		{
			"name": "getOrderReceipt",
			"request": {
				"method": "POST",
				"header": [],
				"body": {
					"mode": "formdata",
					"formdata": [
						{
							"key": "barId",
							"value": "1",
							"type": "text"
						},
						{
							"key": "orderId",
							"value": "BN25141",
							"type": "text"
						}
					]
				},
				"url": {
					"raw": "http://104.197.28.169/bar-nights-api/api/getOrderReceipt",
					"protocol": "http",
					"host": [
						"104",
						"197",
						"28",
						"169"
					],
					"path": [
						"bar-nights-api",
						"api",
						"getOrderReceipt"
					]
				}
			},
			"response": []
		},
		{
			"name": "getMyOrders",
			"request": {
				"method": "POST",
				"header": [],
				"body": {
					"mode": "formdata",
					"formdata": [
						{
							"key": "userId",
							"value": "66",
							"type": "text"
						}
					]
				},
				"url": {
					"raw": "http://104.197.28.169/bar-nights-api/api/getMyOrders",
					"protocol": "http",
					"host": [
						"104",
						"197",
						"28",
						"169"
					],
					"path": [
						"bar-nights-api",
						"api",
						"getMyOrders"
					]
				}
			},
			"response": []
		}
	],
	"protocolProfileBehavior": {}
}