{
	"info": {
		"_postman_id": "74ae41eb-0cd0-4846-881b-56044718db0e",
		"name": "BN Topper APIs - Live",
		"schema": "https://schema.getpostman.com/json/collection/v2.1.0/collection.json"
	},
	"item": [
		{
			"name": "getTopSpenders",
			"request": {
				"method": "POST",
				"header": [],
				"body": {
					"mode": "formdata",
					"formdata": [
						{
							"key": "limit",
							"value": "4",
							"type": "text",
							"disabled": true
						},
						{
							"key": "startFrom",
							"value": "1",
							"type": "text",
							"disabled": true
						}
					]
				},
				"url": {
					"raw": "http://ctworklab.com/projects/bar-nights-api/api/getTopSpenders",
					"protocol": "http",
					"host": [
						"ctworklab",
						"com"
					],
					"path": [
						"projects",
						"bar-nights-api",
						"api",
						"getTopSpenders"
					]
				}
			},
			"response": []
		}
	],
	"protocolProfileBehavior": {}
}