{
	"info": {
		"_postman_id": "26269fc9-d2b1-41bc-9ad4-4dca303f0ed6",
		"name": "BN Wallet APIs - Live",
		"schema": "https://schema.getpostman.com/json/collection/v2.1.0/collection.json"
	},
	"item": [
		{
			"name": "getWalletBalance",
			"request": {
				"method": "POST",
				"header": [],
				"body": {
					"mode": "formdata",
					"formdata": [
						{
							"key": "userId",
							"value": "18",
							"type": "text"
						}
					]
				},
				"url": {
					"raw": "http://ctworklab.com/projects/bar-nights-api/api/getWalletBalance",
					"protocol": "http",
					"host": [
						"ctworklab",
						"com"
					],
					"path": [
						"projects",
						"bar-nights-api",
						"api",
						"getWalletBalance"
					]
				}
			},
			"response": []
		}
	],
	"protocolProfileBehavior": {}
}