{
	"info": {
		"_postman_id": "0e5af54c-c5f5-4d30-bf16-f1c61b78442f",
		"name": "BN News Feed APIs - Live",
		"schema": "https://schema.getpostman.com/json/collection/v2.1.0/collection.json"
	},
	"item": [
		{
			"name": "addNewsFeed",
			"request": {
				"method": "POST",
				"header": [],
				"body": {
					"mode": "formdata",
					"formdata": [
						{
							"key": "userId",
							"value": "1",
							"type": "text"
						},
						{
							"key": "description",
							"value": "Wanna do a party #BarParty",
							"description": "optional",
							"type": "text"
						},
						{
							"key": "media[]",
							"type": "file",
							"src": [
								"/home/coretechies/Desktop/4.jpeg",
								"/home/coretechies/Desktop/5.jpeg"
							]
						},
						{
							"key": "mediaType",
							"value": "1",
							"description": "1:image / 2: video",
							"type": "text"
						},
						{
							"key": "friendIds",
							"value": "65,80",
							"type": "text"
						},
						{
							"key": "latitude",
							"value": "65.5454465",
							"type": "text"
						},
						{
							"key": "longitude",
							"value": "65.5451458",
							"type": "text"
						},
						{
							"key": "address",
							"value": "rani bazar",
							"type": "text"
						}
					]
				},
				"url": {
					"raw": "http://104.197.28.169/bn2/api/addNewsFeed",
					"protocol": "http",
					"host": [
						"104",
						"197",
						"28",
						"169"
					],
					"path": [
						"bn2",
						"api",
						"addNewsFeed"
					]
				}
			},
			"response": []
		},
		{
			"name": "postNewsComment",
			"request": {
				"method": "POST",
				"header": [
					{
						"key": "Content-Type",
						"type": "text",
						"value": "application/x-www-form-urlencoded"
					}
				],
				"body": {
					"mode": "formdata",
					"formdata": [
						{
							"key": "userId",
							"value": "1",
							"type": "text"
						},
						{
							"key": "newsId",
							"value": "3",
							"type": "text"
						},
						{
							"key": "comment",
							"value": "tester",
							"type": "text"
						}
					]
				},
				"url": {
					"raw": "http://104.197.28.169/bar-nights-api/api/postNewsComment",
					"protocol": "http",
					"host": [
						"104",
						"197",
						"28",
						"169"
					],
					"path": [
						"bar-nights-api",
						"api",
						"postNewsComment"
					]
				}
			},
			"response": []
		},
		{
			"name": "postNewsReaction",
			"request": {
				"method": "POST",
				"header": [
					{
						"key": "Content-Type",
						"type": "text",
						"value": "application/x-www-form-urlencoded"
					}
				],
				"body": {
					"mode": "formdata",
					"formdata": [
						{
							"key": "userId",
							"value": "1",
							"type": "text"
						},
						{
							"key": "newsId",
							"value": "3",
							"type": "text"
						},
						{
							"key": "reactionId",
							"value": "1",
							"type": "text"
						},
						{
							"key": "status",
							"value": "1",
							"type": "text"
						}
					]
				},
				"url": {
					"raw": "http://104.197.28.169/bar-nights-api/api/postNewsReaction",
					"protocol": "http",
					"host": [
						"104",
						"197",
						"28",
						"169"
					],
					"path": [
						"bar-nights-api",
						"api",
						"postNewsReaction"
					]
				}
			},
			"response": []
		},
		{
			"name": "deleteNewsFeed",
			"request": {
				"method": "POST",
				"header": [
					{
						"key": "Content-Type",
						"type": "text",
						"value": "application/x-www-form-urlencoded"
					}
				],
				"body": {
					"mode": "formdata",
					"formdata": [
						{
							"key": "id",
							"value": "3",
							"type": "text"
						}
					]
				},
				"url": {
					"raw": "104.197.28.169/bar-nights-api/api/deleteNewsFeed",
					"host": [
						"104",
						"197",
						"28",
						"169"
					],
					"path": [
						"bar-nights-api",
						"api",
						"deleteNewsFeed"
					]
				}
			},
			"response": []
		},
		{
			"name": "getMyNewsFeed",
			"request": {
				"method": "POST",
				"header": [
					{
						"key": "Content-Type",
						"type": "text",
						"value": "application/x-www-form-urlencoded"
					}
				],
				"body": {
					"mode": "formdata",
					"formdata": [
						{
							"key": "userId",
							"value": "1",
							"type": "text"
						},
						{
							"key": "startFrom",
							"value": "1",
							"type": "text",
							"disabled": true
						},
						{
							"key": "limit",
							"value": "10",
							"type": "text",
							"disabled": true
						},
						{
							"key": "myId",
							"value": "58",
							"type": "text"
						}
					]
				},
				"url": {
					"raw": "http://104.197.28.169/bn2/api/getMyNewsFeed",
					"protocol": "http",
					"host": [
						"104",
						"197",
						"28",
						"169"
					],
					"path": [
						"bn2",
						"api",
						"getMyNewsFeed"
					]
				}
			},
			"response": []
		},
		{
			"name": "deleteComment",
			"request": {
				"method": "POST",
				"header": [
					{
						"key": "Content-Type",
						"type": "text",
						"value": "application/x-www-form-urlencoded"
					}
				],
				"body": {
					"mode": "formdata",
					"formdata": [
						{
							"key": "id",
							"value": "2",
							"type": "text"
						}
					]
				},
				"url": {
					"raw": "http://ctworklab.com/projects/bar-nights-api/api/deleteComment",
					"protocol": "http",
					"host": [
						"ctworklab",
						"com"
					],
					"path": [
						"projects",
						"bar-nights-api",
						"api",
						"deleteComment"
					]
				}
			},
			"response": []
		},
		{
			"name": "getCommentsReactions",
			"request": {
				"method": "POST",
				"header": [
					{
						"key": "Content-Type",
						"type": "text",
						"value": "application/x-www-form-urlencoded"
					}
				],
				"body": {
					"mode": "formdata",
					"formdata": [
						{
							"key": "newsId",
							"value": "3",
							"type": "text"
						}
					]
				},
				"url": {
					"raw": "http://104.197.28.169/bar-nights-api/api/getCommentsReactions",
					"protocol": "http",
					"host": [
						"104",
						"197",
						"28",
						"169"
					],
					"path": [
						"bar-nights-api",
						"api",
						"getCommentsReactions"
					]
				}
			},
			"response": []
		},
		{
			"name": "reportNewsFeed",
			"request": {
				"method": "POST",
				"header": [
					{
						"key": "Content-Type",
						"type": "text",
						"value": "application/x-www-form-urlencoded"
					}
				],
				"body": {
					"mode": "formdata",
					"formdata": [
						{
							"key": "newsId",
							"value": "3",
							"type": "text"
						},
						{
							"key": "userId",
							"value": "",
							"type": "text"
						}
					]
				},
				"url": {
					"raw": "http://104.197.28.169/bar-nights-api/api/reportNewsFeed",
					"protocol": "http",
					"host": [
						"104",
						"197",
						"28",
						"169"
					],
					"path": [
						"bar-nights-api",
						"api",
						"reportNewsFeed"
					]
				}
			},
			"response": []
		}
	],
	"protocolProfileBehavior": {}
}