{
	"info": {
		"_postman_id": "199990db-7154-4d4e-9d94-6e778c437ad2",
		"name": "BN Table Booking Apis",
		"schema": "https://schema.getpostman.com/json/collection/v2.1.0/collection.json"
	},
	"item": [
		{
			"name": "bookTable",
			"request": {
				"method": "POST",
				"header": [],
				"body": {
					"mode": "formdata",
					"formdata": [
						{
							"key": "userId",
							"value": "1",
							"type": "text"
						},
						{
							"key": "barId",
							"value": "3",
							"type": "text"
						},
						{
							"key": "bookingDate",
							"value": "2019-12-30",
							"description": "YYYY-mm-dd",
							"type": "text"
						},
						{
							"key": "bookingTime",
							"value": "23:09",
							"description": "H:m",
							"type": "text"
						},
						{
							"key": "totalPerson",
							"value": "4",
							"type": "text"
						},
						{
							"key": "comment",
							"value": "",
							"type": "text"
						}
					]
				},
				"url": {
					"raw": "http://104.197.28.169/bar-nights-api/api/bookTable",
					"protocol": "http",
					"host": [
						"104",
						"197",
						"28",
						"169"
					],
					"path": [
						"bar-nights-api",
						"api",
						"bookTable"
					]
				}
			},
			"response": []
		},
		{
			"name": "getTableBooking",
			"request": {
				"method": "POST",
				"header": [],
				"body": {
					"mode": "formdata",
					"formdata": [
						{
							"key": "userId",
							"value": "1",
							"description": "H:m:s",
							"type": "text"
						},
						{
							"key": "",
							"value": "",
							"description": "status:- 0:Pending, 1:Accept, 2:Reject",
							"type": "text",
							"disabled": true
						}
					]
				},
				"url": {
					"raw": "http://104.197.28.169/bar-nights-api/api/getTableBooking",
					"protocol": "http",
					"host": [
						"104",
						"197",
						"28",
						"169"
					],
					"path": [
						"bar-nights-api",
						"api",
						"getTableBooking"
					]
				}
			},
			"response": []
		}
	],
	"protocolProfileBehavior": {}
}